{
  "name": "Cart tracker",
  "trigger": "add-to-cart",
  "root": "b2c98b3b-1ed3-4967-b299-359707b11cd1",
  "checkpoints": [
    {
      "id": "e68ea93e-2c9e-4932-adcc-6b008d9b9b8a",
      "type": "stop",
      "is_checked": true,
      "left_child_id": null,
      "right_child_id": null
    },
    {
      "id": "636c3389-77f3-4ad9-9851-418dbff875cd",
      "type": "action",
      "is_checked": false,
      "payload": {
        "notification_id":"some_id"
      },
      "left_child_id": "e68ea93e-2c9e-4932-adcc-6b008d9b9b8a",
      "right_child_id": null
    },
    {
      "id": "5ab30bb6-b4bc-4639-b42e-9b6197444e8c",
      "type": "stop",
      "is_checked": true,
      "left_child_id": null,
      "right_child_id": null
    },
    {
      "id": "867410d1-8993-4194-b397-dfba9eabb1f4",
      "type": "eventOccurrenceCondition",
      "is_checked": true,
      "payload": {
        "activity_name": "paid?"
      },
      "left_child_id": "636c3389-77f3-4ad9-9851-418dbff875cd",
      "right_child_id": "5ab30bb6-b4bc-4639-b42e-9b6197444e8c"
    },
    {
      "id": "f0b7f98c-490e-4b38-bcf1-3bb31cd3d315",
      "type": "idle",
      "is_checked": true,
      "payload": {
        "time": 72000
      },
      "left_child_id": "867410d1-8993-4194-b397-dfba9eabb1f4",
      "right_child_id": null
    },
    {
      "id": "0b52717f-aaab-4e23-99ee-2859836d2246",
      "type": "action",
      "is_checked": true,
      "payload": {
        "notification_id":"some_id"
      },
      "left_child_id": "f0b7f98c-490e-4b38-bcf1-3bb31cd3d315",
      "right_child_id": null
    },
    {
      "id": "dbc8900d-e404-4ee3-843c-3b1f8c9aee65",
      "type": "stop",
      "is_checked": true,
      "left_child_id": null,
      "right_child_id": null
    },
    {
      "id": "ff2f58de-3a21-46bc-8335-2050bc62237b",
      "type": "action",
      "is_checked": true,
      "payload": {
        "notification_id":"some_id"
      },
      "left_child_id": "dbc8900d-e404-4ee3-843c-3b1f8c9aee65",
      "right_child_id": null
    },
    {
      "id": "9c8bcab3-6062-42ab-8c20-1846bdee211b",
      "type": "stop",
      "is_checked": true,
      "left_child_id": null,
      "right_child_id": null
    },
    {
      "id": "bd8be80c-1557-4d88-a39c-7aac0add5cbc",
      "type": "eventOccurrenceCondition",
      "is_checked": true,
      "payload": {
        "activity_name": "Does it consume?"
      },
      "left_child_id": "ff2f58de-3a21-46bc-8335-2050bc62237b",
      "right_child_id": "9c8bcab3-6062-42ab-8c20-1846bdee211b"
    },
    {
      "id": "105028c7-ca1a-4b90-b233-c6d5e5d46c87",
      "type": "idle",
      "is_checked": true,
      "payload": {
        "time": 626400
      },
      "left_child_id": "bd8be80c-1557-4d88-a39c-7aac0add5cbc",
      "right_child_id": null
    },
    {
      "id": "d9fd7acd-8ea7-4686-b987-4a16ed5f9bca",
      "type": "action",
      "is_checked": true,
      "payload": {
        "notification_id":"some_id"
      },
      "left_child_id": "105028c7-ca1a-4b90-b233-c6d5e5d46c87",
      "right_child_id": null
    },
    {
      "id": "4a42ab39-6c60-4aca-b9b4-e76a5f6ee518",
      "type": "idle",
      "is_checked": true,
      "payload": {
        "time": 172800
      },
      "left_child_id": "d9fd7acd-8ea7-4686-b987-4a16ed5f9bca",
      "right_child_id": null
    },
    {
      "id": "763a1aec-df36-4971-8ca4-26defd6d20ca",
      "type": "eventOccurrenceCondition",
      "is_checked": true,
      "payload": {
        "activity_name": "paid?"
      },
      "left_child_id": "0b52717f-aaab-4e23-99ee-2859836d2246",
      "right_child_id": "4a42ab39-6c60-4aca-b9b4-e76a5f6ee518"
    },
    {
      "id": "b2c98b3b-1ed3-4967-b299-359707b11cd1",
      "type": "idle",
      "is_checked": true,
      "payload": {
        "time": 36000
      },
      "left_child_id": "763a1aec-df36-4971-8ca4-26defd6d20ca",
      "right_child_id": null
    }
  ],
  "enable": true
}